<?xml version="1.0" encoding="utf-8"?>
<!-- Generator: Adobe Illustrator 25.0.0, SVG Export Plug-In . SVG Version: 6.00 Build 0)  -->
<svg version="1.1" id="Layer_1" xmlns="http://www.w3.org/2000/svg" xmlns:xlink="http://www.w3.org/1999/xlink" x="0px" y="0px"
	 viewBox="0 0 418.74 315.85" style="enable-background:new 0 0 418.74 315.85;" xml:space="preserve">
<style type="text/css">
	.st0{fill:none;stroke:#000000;stroke-width:3;stroke-miterlimit:10;}
	.st1{fill:none;}
</style>
<g>
	<g>
		<path d="M319.17,250.42c0,0.24,0,0.47-0.01,0.72H185.09v-94.63C259.18,156.64,319.17,198.65,319.17,250.42z"/>
		<path d="M185.09,132.14V37.5h134.76c0.01,0.24,0.01,0.47,0.01,0.72c0,51.86-60.19,93.91-134.42,93.91H185.09z"/>
		<path d="M80.87,50.49c54.65,0.48,98.84,53.11,98.84,117.96c0,64.84-44.19,117.47-98.84,117.95V50.49z"/>
	</g>
	<rect x="16.37" y="13.44" class="st0" width="386" height="288.97"/>
</g>
</svg>
